%YAML 1.1
%TAG !u! tag:unity3d.com,2011:
--- !u!1045 &1
EditorBuildSettings:
  m_ObjectHideFlags: 0
  serializedVersion: 2
  m_Scenes:
  - enabled: 1
    path: Assets/Resources/Scenes/MainMenuScene.unity
    guid: 99c9720ab356a0642a771bea13969a05
  - enabled: 1
    path: Assets/Resources/Scenes/Level1.unity
    guid: 38f1ca2106145ea40a45925767deff9b
  - enabled: 1
    path: Assets/Resources/Scenes/Level2.unity
    guid: 48df5fd8331e59f44b700139d307508b
  - enabled: 1
    path: Assets/Resources/Scenes/Level3.unity
    guid: a1e772f03c6630645bdaa12972ca6645
  - enabled: 1
    path: Assets/Resources/Scenes/Level4.unity
    guid: 2abcf5daf8ba2ec42832d19e215ebc59
  - enabled: 0
    path: 
    guid: 00000000000000000000000000000000
  m_configObjects: {}
